<svg xmlns="http://www.w3.org/2000/svg" height="50" width="50" viewBox="0 0 512 512" preserveAspectRatio="xMidYMid meet">

<g transform="translate(0.000000,512.000000) scale(0.100000,-0.100000)"
fill="#FFFFFF" stroke="none">
<path d="M482 5098 c-29 -16 -104 -97 -252 -271 -115 -136 -214 -256 -220
-267 -32 -60 20 -140 92 -140 41 0 74 32 245 234 92 109 169 194 171 188 1 -5
-18 -103 -44 -217 -49 -223 -50 -253 -11 -313 26 -38 107 -82 151 -82 61 1
109 34 191 129 42 51 81 89 85 84 4 -4 26 -125 48 -268 41 -254 43 -261 72
-287 42 -39 92 -38 131 1 22 22 29 39 29 67 0 64 -90 596 -107 631 -43 92
-162 127 -250 73 -17 -10 -59 -52 -94 -93 -35 -41 -65 -74 -66 -73 -2 2 17 93
42 204 25 111 45 219 45 241 0 76 -35 130 -105 162 -54 25 -103 24 -153 -3z"/>
<path d="M4471 5106 c-49 -27 -64 -90 -33 -138 9 -15 106 -102 216 -195 109
-92 194 -169 189 -170 -5 -2 -104 17 -218 42 -146 32 -220 44 -245 40 -54 -10
-98 -45 -125 -99 -50 -99 -27 -159 104 -271 51 -42 89 -81 84 -85 -4 -4 -125
-26 -268 -48 -254 -41 -261 -43 -287 -72 -39 -43 -38 -91 3 -132 29 -30 32
-31 97 -25 75 7 550 83 579 93 34 13 83 55 99 87 22 42 22 124 1 164 -9 18
-53 63 -96 100 -43 37 -78 69 -77 70 2 2 93 -17 204 -42 213 -48 276 -54 320
-31 58 30 102 103 102 169 0 69 -34 108 -293 327 -136 115 -256 214 -267 220
-25 14 -60 12 -89 -4z"/>
<path d="M2509 4375 c-53 -29 -61 -105 -17 -152 43 -46 125 -37 153 18 49 95
-43 185 -136 134z"/>
<path d="M2045 4263 c-164 -92 -297 -215 -393 -360 -53 -81 -122 -224 -122
-252 0 -7 -35 -11 -98 -11 -165 0 -296 -44 -429 -145 -154 -115 -259 -321
-265 -518 -2 -68 -5 -78 -23 -83 -50 -15 -168 -100 -233 -168 -78 -82 -140
-194 -169 -306 -23 -87 -22 -253 1 -340 54 -201 190 -365 380 -456 104 -50
196 -67 333 -62 l114 4 21 -40 c113 -223 345 -398 598 -452 86 -18 271 -18
360 1 140 30 297 108 399 200 l41 37 47 -42 c107 -93 251 -165 395 -195 87
-19 273 -19 358 -1 100 21 223 73 303 126 117 79 234 207 292 321 l23 45 115
-4 c137 -5 229 12 333 62 144 69 256 179 327 322 52 102 70 182 71 304 0 126
-18 201 -75 319 -65 131 -209 269 -335 320 -32 12 -32 13 -33 90 -3 192 -109
400 -264 516 -133 101 -264 145 -429 145 -63 0 -98 4 -98 11 0 6 -14 44 -31
86 -45 107 -138 243 -227 332 -106 106 -279 221 -332 221 -52 0 -100 -49 -100
-101 0 -36 27 -74 72 -98 224 -125 361 -292 442 -541 29 -87 34 -96 67 -113
30 -14 45 -16 80 -8 77 18 213 13 281 -10 225 -75 361 -291 337 -534 -6 -67 8
-117 38 -133 10 -6 44 -19 77 -31 174 -61 298 -214 327 -401 32 -206 -81 -415
-277 -512 -79 -39 -91 -42 -187 -46 -77 -3 -118 0 -159 12 -112 32 -141 20
-183 -81 -87 -210 -250 -356 -460 -414 -67 -18 -98 -21 -199 -17 -198 7 -320
62 -463 205 -86 87 -116 105 -154 96 -13 -3 -62 -45 -109 -92 -146 -147 -267
-202 -466 -209 -101 -4 -132 -1 -199 17 -212 58 -371 201 -460 414 -16 38 -38
75 -49 83 -26 18 -68 18 -130 -1 -56 -17 -190 -19 -253 -5 -111 26 -237 117
-302 219 -171 266 -45 627 255 732 33 12 67 25 77 31 21 11 51 74 42 88 -4 6
-6 52 -6 103 -1 222 131 406 340 477 67 22 203 27 280 9 35 -8 50 -6 80 8 33
17 38 26 67 113 79 242 208 404 423 530 78 45 91 62 91 114 0 85 -86 119 -175
69z"/>
<path d="M2055 3151 c-34 -15 -57 -48 -66 -97 -5 -26 -16 -58 -25 -71 -22 -34
-74 -63 -113 -63 -42 0 -101 -55 -101 -94 0 -73 56 -113 141 -103 160 19 291
159 293 313 1 55 -2 67 -24 88 -28 28 -74 40 -105 27z"/>
<path d="M2995 3151 c-44 -19 -60 -50 -59 -116 2 -152 134 -293 293 -312 85
-10 141 30 141 103 0 39 -59 94 -101 94 -39 0 -91 29 -113 63 -9 13 -20 45
-25 71 -14 76 -78 122 -136 97z"/>
<path d="M2428 2335 c-139 -26 -264 -89 -361 -182 -25 -24 -48 -54 -51 -68 -9
-37 17 -91 54 -110 44 -23 80 -12 143 41 90 78 236 134 347 134 111 0 257 -56
347 -134 29 -24 66 -47 83 -51 42 -9 91 21 108 67 12 31 12 40 -3 69 -37 77
-224 194 -358 224 -102 23 -219 27 -309 10z"/>
<path d="M4122 1324 c-12 -8 -27 -24 -33 -36 -14 -25 -39 -609 -28 -657 9 -42
36 -79 77 -107 69 -47 148 -39 229 24 26 21 65 50 85 66 l37 27 -91 -203 c-79
-175 -92 -211 -92 -258 -1 -66 22 -109 76 -146 51 -36 113 -42 169 -16 48 22
484 361 537 417 19 20 32 45 32 60 0 58 -47 105 -104 105 -30 0 -59 -20 -286
-200 -104 -82 -190 -147 -190 -143 0 5 39 96 86 202 48 107 89 214 92 237 13
115 -110 217 -223 185 -23 -6 -80 -42 -135 -85 l-95 -75 -3 54 c-2 29 1 149 6
266 6 136 6 222 0 240 -19 54 -97 77 -146 43z"/>
<path d="M940 1221 c-41 -15 -165 -59 -274 -96 -212 -73 -256 -98 -282 -162
-36 -85 -2 -177 85 -230 31 -19 74 -45 96 -59 l40 -25 -200 8 c-238 9 -267 8
-303 -11 -70 -37 -112 -123 -98 -201 12 -64 70 -108 369 -284 257 -151 281
-163 315 -158 70 12 107 97 67 154 -8 11 -120 83 -250 159 -129 77 -230 140
-225 142 5 2 103 -1 218 -7 138 -7 220 -7 244 -1 130 36 171 209 72 302 -16
15 -72 51 -124 82 -58 34 -89 57 -80 60 8 3 121 42 250 86 129 45 245 88 258
96 50 33 53 116 5 154 -35 27 -91 25 -183 -9z"/>
</g>
</svg>
